Text Prediction with Clinical Trials Data: Mono vs. Combination Therapy
…
To start, we will load in our hand-coded data of the clinical trials,
which includes the NCD ID and our labels. We’ll also include a flag that
randomly assigns each trial to a training or validation set.

set.seed(1L)
bladder <- read_csv("input/ca_pool.csv") |>
  select(nct_id, official_title, endpoint_met, type_of_therapy,
         line_of_therapy, description,) |>
  mutate(bin = if_else(runif(n()) <= 0.66, "train", "valid")) |>
  filter(!duplicated(nct_id))

bladder

## # A tibble: 144 × 7
##    nct_id      official_title          endpo…¹ type_…² line_…³ descr…⁴ bin  
##    <chr>       <chr>                   <chr>   <chr>   <chr>   <chr>   <chr>
##  1 NCT02302807 A Phase III, Open-Labe… Met     Monoth… 2       This i… train
##  2 NCT02042443 Randomized Phase II Tr… Not met Monoth… 2       This r… train
##  3 NCT01589094 Phase II Study of Neoa… Met     Combin… 1       The pu… train
##  4 NCT01031420 Phase II Trial of Neoa… Met     Combin… 1       Standa… valid
##  5 NCT00978250 A Multi-Histology Phas… N/A     Combin… 2       Backgr… train
##  6 NCT00661609 A Phase II, Single Arm… Not met Monoth… 3       The pu… valid
##  7 NCT00445601 A Phase III Blinded St… Met     Monoth… 1       RATION… valid
##  8 NCT00598806 A Multicenter, Randomi… Not met Monoth… 1       The pu… valid
##  9 NCT00506155 A Phase II Clinical Tr… Met     Combin… 1       The go… train
## 10 NCT00461591 A Multicenter, Randomi… Not met Monoth… 1       The pu… train
## # … with 134 more rows, and abbreviated variable names ¹​endpoint_met,
## #   ²​type_of_therapy, ³​line_of_therapy, ⁴​description
…
dg <- design_groups |>
  mutate(description = if_else(is.na(description), "", description)) |>
  mutate(title = if_else(is.na(title), "", title)) |>
  mutate(group_type = if_else(is.na(group_type), "", group_type)) |>
  mutate(design = paste(group_type, title, description, by = " ")) |>
  group_by(nct_id) |>
  summarize(design = paste(design, collapse = " ")) |>
  select(design, nct_id)

dg

## # A tibble: 136 × 2
##    design                                                             nct_id
##    <chr>                                                              <chr> 
##  1 "Active Comparator paclitaxel 3 cycles paclitaxel given for 3 cyc… NCT00…
##  2 "Experimental Carboplatin, paclitaxel, low dose paclitaxel carbop… NCT00…
##  3 "Active Comparator Arm I Patients receive paclitaxel IV over 3 ho… NCT00…
##  4 "Experimental Capecitabine + Gemcitabine Capecitabine 650 mg/m^2 … NCT00…
##  5 "Experimental bexarotene with carboplatin and paclitaxel    Exper… NCT00…
##  6 "Experimental Pelvic RT + paclitaxel + cisplatin Induction: Twice… NCT00…
##  7 "Placebo Comparator Placebo Arm Eligible subjects will complete a… NCT00…
##  8 "Placebo Comparator APC-Placebo    Active Comparator Sipuleucel-T… NCT00…
##  9 "Experimental A    Active Comparator B   "                         NCT00…
## 10 "Experimental AMG 162    Placebo Comparator Placebo   "            NCT00…
## # … with 126 more rows
…
inter <- interventions |>
  mutate(intervention_type = if_else(is.na(intervention_type), "", intervention_type)) |>
  mutate(name = if_else(is.na(name), "", name)) |>
  mutate(inter = paste(intervention_type, name, by = " ")) |>
  group_by(nct_id) |>
  summarize(inter = paste(inter, collapse = " ")) |>
  select(inter, nct_id)

inter

## # A tibble: 144 × 2
##    inter                                                              nct_id
##    <chr>                                                              <chr> 
##  1 "Drug cisplatin   Drug paclitaxel  "                               NCT00…
##  2 "Drug paclitaxel  "                                                NCT00…
##  3 "Drug cisplatin   Drug paclitaxel   Procedure quality-of-life ass… NCT00…
##  4 "Drug carboplatin   Drug paclitaxel  "                             NCT00…
##  5 "Drug Paclitaxel   Drug Carboplatin   Drug Gemcitabine Hydrochlor… NCT00…
##  6 "Drug capecitabine   Drug gemcitabine hydrochloride  "             NCT00…
##  7 "Drug bexarotene with carboplatin and paclitaxel   Drug carboplat… NCT00…
##  8 "Drug cisplatin   Drug fluorouracil   Drug paclitaxel   Radiation… NCT00…
##  9 "Drug Dutasteride   Drug Placebo  "                                NCT00…
## 10 "Biological Sipuleucel-T   Biological APC-Placebo  "               NCT00…
## # … with 134 more rows
…
bladder_tomodel <- bladder |>
  left_join(dg, by = "nct_id") |>
  left_join(inter, by = "nct_id") |>
  mutate(design = if_else(is.na(design), "", design)) |>
  mutate(inter = if_else(is.na(inter), "", inter)) |>
  mutate(text = paste0(official_title, description, design, inter)) |>
  select(nct_id, text, type_of_therapy, bin)

bladder_tomodel

## # A tibble: 144 × 4
##    nct_id      text                                            type_…¹ bin  
##    <chr>       <chr>                                           <chr>   <chr>
##  1 NCT02302807 "A Phase III, Open-Label, Multicenter, Randomi… Monoth… train
##  2 NCT02042443 "Randomized Phase II Trial of Single Agent MEK… Monoth… train
##  3 NCT01589094 "Phase II Study of Neoadjuvant Dose Dense Gemc… Combin… train
##  4 NCT01031420 "Phase II Trial of Neoadjuvant Dose Dense MVAC… Combin… valid
##  5 NCT00978250 "A Multi-Histology Phase II Study of 5-Fluoro-… Combin… train
##  6 NCT00661609 "A Phase II, Single Arm, Single Agent, Multice… Monoth… valid
##  7 NCT00445601 "A Phase III Blinded Study of Immediate Post T… Monoth… valid
##  8 NCT00598806 "A Multicenter, Randomized, Placebo-Controlled… Monoth… valid
##  9 NCT00506155 "A Phase II Clinical Trial of Neoadjuvant Chem… Combin… train
## 10 NCT00461591 "A Multicenter, Randomized, Placebo-Controlled… Monoth… train
## # … with 134 more rows, and abbreviated variable name ¹​type_of_therapy
Now that we have our data put together, we will run a natural
language processing annotation that splits our data into individual
tokens.

anno <- cnlp_annotate(bladder_tomodel, doc_name = "nct_id", verbose = 25L)$token

## Processed document 25 of 144
## Processed document 50 of 144
## Processed document 75 of 144
## Processed document 100 of 144
## Processed document 125 of 144

anno

## # A tibble: 26,632 × 11
##    doc_id    sid tid   token token…¹ lemma upos  xpos  feats tid_s…² relat…³
##  * <chr>   <int> <chr> <chr> <chr>   <chr> <chr> <chr> <chr> <chr>   <chr>  
##  1 NCT023…     1 1     A     "A "    a     DET   DT    Defi… 2       det    
##  2 NCT023…     1 2     Phase "Phase… phase NOUN  NN    Numb… 0       root   
##  3 NCT023…     1 3     III   "III"   III   NUM   CD    NumT… 2       nummod 
##  4 NCT023…     1 4     ,     ", "    ,     PUNCT ,     <NA>  5       punct  
##  5 NCT023…     1 5     Open  "Open"  open  PROPN NNP   Numb… 2       conj   
##  6 NCT023…     1 6     -Lab… "-Labe… -Lab… PROPN NNP   Numb… 5       flat   
##  7 NCT023…     1 7     ,     ", "    ,     PUNCT ,     <NA>  8       punct  
##  8 NCT023…     1 8     Mult… "Multi… Mult… PROPN NNP   Numb… 2       conj   
##  9 NCT023…     1 9     ,     ", "    ,     PUNCT ,     <NA>  11      punct  
## 10 NCT023…     1 10    Rand… "Rando… Rand… PROPN NNP   Numb… 11      compou…
## # … with 26,622 more rows, and abbreviated variable names ¹​token_with_ws,
## #   ²​tid_source, ³​relation
…
number_of_inters <- interventions |>
  filter(intervention_type %in% c("Biological", "Drug", "Radiation")) |>
  mutate(name = stri_trans_tolower(name)) |>
  mutate(num_inter = stri_detect(name, fixed = "with") +
                     stri_detect(name, fixed = "and") +
                     stri_detect(name, fixed = "+") +
                     stri_detect(name, fixed = "plus") +
                     stri_detect(name, fixed = "mvac") +
                     stri_detect(name, fixed = "dvac") +
                     1L) |>
  select(id, nct_id, num_inter)

number_of_inters

## # A tibble: 366 × 3
##          id nct_id      num_inter
##       <dbl> <chr>           <int>
##  1 19556452 NCT01387269         1
##  2 19556453 NCT01387269         1
##  3 19556454 NCT01387282         1
##  4 19556455 NCT01387282         1
##  5 19556799 NCT01395914         1
##  6 19556800 NCT01395914         1
##  7 19560570 NCT01515189         1
##  8 19563008 NCT01589094         2
##  9 19564854 NCT01605227         1
## 10 19564855 NCT01605227         1
## # … with 356 more rows
…
number_of_inters_sum <- number_of_inters |>
  inner_join(
    select(design_gint, -id), by = c("id" = "intervention_id", "nct_id")
  ) |>
  inner_join(design_groups, by = c("design_group_id" = "id", "nct_id"),
             suffix = c("_intervention", "_design")) |>
  filter(group_type == "Experimental") |>
  group_by(nct_id, design_group_id) |>
  summarize(num_inter = sum(num_inter)) |>
  ungroup()

number_of_inters_sum

## # A tibble: 160 × 3
##    nct_id      design_group_id num_inter
##    <chr>                 <dbl>     <int>
##  1 NCT00003120        20742016         1
##  2 NCT00003644        20608969         2
##  3 NCT00011986        20610792         3
##  4 NCT00011986        20610793         3
##  5 NCT00011986        20610794         3
##  6 NCT00011986        20610795         3
##  7 NCT00033540        20610922         2
##  8 NCT00050960        20611171         3
##  9 NCT00050960        20611172         2
## 10 NCT00055601        20611259         4
## # … with 150 more rows

Now, we’ll combine the data from above with our hand-labeled data and
categorize a treatement as Monotherapy if it has only a single
intervention in the experimental arm and as a combination therapy
otherwise.

expert_rules <- number_of_inters_sum |>
  inner_join(select(bladder, nct_id, type_of_therapy, bin),  by = "nct_id") |>
  mutate(pred = if_else(num_inter == 1, "Monotherapy", "Combination"))

expert_rules

## # A tibble: 160 × 6
##    nct_id      design_group_id num_inter type_of_therapy bin   pred       
##    <chr>                 <dbl>     <int> <chr>           <chr> <chr>      
##  1 NCT00003120        20742016         1 Monotherapy     train Monotherapy
##  2 NCT00003644        20608969         2 Combination     valid Combination
##  3 NCT00011986        20610792         3 Combination     train Combination
##  4 NCT00011986        20610793         3 Combination     train Combination
##  5 NCT00011986        20610794         3 Combination     train Combination
##  6 NCT00011986        20610795         3 Combination     train Combination
##  7 NCT00033540        20610922         2 Combination     valid Combination
##  8 NCT00050960        20611171         3 Combination     valid Combination
##  9 NCT00050960        20611172         2 Combination     valid Combination
## 10 NCT00055601        20611259         4 Combination     train Combination
## # … with 150 more rows
…
